*** Darwin 9x9 ***
Turn = 0.
  012345678
0 ..r......
1 ..h......
2 ..rh.r...
3 ....r....
4 .....t...
5 ...t.....
6 .........
7 .......r.
8 .......r.

Turn = 2.
  012345678
0 ....r....
1 h........
2 r..r.....
3 ...r.....
4 ...t.t...
5 ...t.....
6 .........
7 ......r..
8 ........r

Turn = 4.
  012345678
0 ......r..
1 r........
2 rr.......
3 .r.......
4 ...t.t...
5 ...t.....
6 ........r
7 ....r....
8 .........

Turn = 6.
  012345678
0 r.......r
1 .r.......
2 r........
3 r........
4 ...t.t..r
5 ...t.....
6 .........
7 ..r......
8 .........

Turn = 8.
  012345678
0 rr.......
1 r.......r
2 ........r
3 .........
4 ...t.t...
5 r..t.....
6 .........
7 r........
8 .........

Turn = 10.
  012345678
0 rr.r.....
1 ........r
2 .......r.
3 .........
4 ...t.t...
5 ...t.....
6 r........
7 .........
8 r........

Turn = 12.
  012345678
0 .r.r.r..r
1 .........
2 .....r...
3 .........
4 ...t.t...
5 ...t.....
6 ..r......
7 .........
8 .r.......

Turn = 14.
  012345678
0 ...r.r.r.
1 ........r
2 ...r.....
3 .........
4 ...t.t...
5 ...t.....
6 ....r....
7 .........
8 ...r.....

Turn = 16.
  012345678
0 .....r.rr
1 .........
2 .r.......
3 ........r
4 ...t.t...
5 ...t.....
6 ......r..
7 .........
8 .....r...

*** Darwin 9x9 ***
Turn = 0.
  012345678
0 ..r.h....
1 .....h..h
2 .....r..r
3 ....r...r
4 ....r....
5 .........
6 .......f.
7 ........f
8 .........

Turn = 1.
  012345678
0 .r.h.....
1 ....h...r
2 ........r
3 ....rr..r
4 .........
5 ....r....
6 .......f.
7 ........f
8 .........

Turn = 2.
  012345678
0 r.h......
1 ...h....r
2 ........r
3 .......r.
4 ....rr...
5 .........
6 ....r..f.
7 ........f
8 .........

Turn = 3.
  012345678
0 rh.......
1 ..h.....r
2 ........r
3 ......r..
4 .........
5 ....rr...
6 .......f.
7 ....r...f
8 .........

Turn = 4.
  012345678
0 rh.......
1 .h.....rr
2 .........
3 .....r...
4 .........
5 .........
6 ....rr.f.
7 ........f
8 ....r....

Turn = 5.
  012345678
0 rh......r
1 h.....r..
2 .........
3 ....r....
4 .........
5 .........
6 .......f.
7 ....rr..f
8 ....r....

Turn = 6.
  012345678
0 rh......r
1 h....r...
2 .........
3 ...r.....
4 .........
5 .........
6 .......f.
7 ....r...f
8 ...r.r...

Turn = 7.
  012345678
0 rh......r
1 h...r....
2 .........
3 ..r......
4 .........
5 .........
6 .......f.
7 .....r..f
8 ..r..r...

Turn = 8.
  012345678
0 rh.......
1 h..r....r
2 .........
3 .r.......
4 .........
5 .........
6 .......f.
7 ......r.f
8 .r....r..

*** Darwin 8x50 ***
Turn = 0.
  01234567890123456789012345678901234567890123456789
0 r....h...r...hr...r..r...t.................rt.....
1 .........h.f.....h...hf.....h.........t.f.....f...
2 ..f..f......ft.......................rh...t.t....f
3 .....r...rt..............h...t.r............h..r..
4 ....t............r............t.............rr....
5 .t.r...........r......f....h.r..........t...h...rr
6 ....................t.f...th.r..........r.........
7 ....hr...t........h....th..........f..r..h.r...t..

Turn = 6.
  01234567890123456789012345678901234567890123456789
0 .....r...rrrr....r.......t............t.....t...r.
1 ...h.......fr.....h...f...............trf.....f...
2 ..f..f......rr..................h........ht.t....r
3 ..............r....rh........tt.............t.....
4 ....t.................r.......t.......r.....t....r
5 .t......rr............fr....h.......r.......t.....
6 .........r..........ttf...ttt.......r....r........
7 r...h....t.......h.....tt..t.......f....r......r.r

Turn = 12.
  01234567890123456789012345678901234567890123456789
0 ........rrrrrr....h......t............t..r..t.....
1 h.............r...r...f...............t.fr....f...
2 r.f..f...........r........h...............t.rr....
3 .............................tt.............t.....
4 ....t.......r...............r.t.r...........t....r
5 .t.........r..........t.....t.r.............t.....
6 .........tr.........tttr..ttt.r..................r
7 ....h....t..rr...h..r..r..rt.......f...r...rr...r.

Turn = 18.
  01234567890123456789012345678901234567890123456789
0 ..rr.......rr..r....r.r..t.....r......t...rr..r.r.
1 ....................rr.r..............t......rr...
2 ..f..f......r.......h.........r...........t.......
3 .............................rr.............t.....
4 ....t.............r..........r..........r.r...r...
5 tt...r...r............t.....tt...............r....
6 .........t.r....r...tttt..tt.t...........r......r.
7 ....h....t.r.......rt..t..ttt......f........r.r..r

Turn = 24.
  01234567890123456789012345678901234567890123456789
0 .......r.r.......r...r.r...r.r...r..r.rr......rrrr
1 ................r..r.....r.rr.........t.r.........
2 .....f........r........r..................tt.....r
3 ..r........r........r.......................t.....
4 ...rt.......r...........r....t......r.............
5 rr....................t.....tt......r.............
6 ..r........r....r....ttt..tt.t.....r.....rr.....r.
7 ....h.r.....r...rr.....t..ttt......f............r.

*** Darwin 25x31 ***
Turn = 0.
  0123456789012345678901234567890
0 f..f.........h.................
1 ......h.h.....t................
2 ..........t....................
3 ..t..............r...h.r......r
4 ..r..........................r.
5 .....h...h....h.tft............
6 ......h........................
7 ........................h......
8 ........h.r..t......h....h.h...
9 ........f.......t..............
0 ............f..................
1 .........tr...h......f.........
2 ...............................
3 ..h......................f.....
4 ............f..................
5 ....h.....t..................r.
6 .....t.............r....rf.....
7 ....r...f..........f...........
8 .........r.................f...
9 ...............................
0 .............h...r..........r..
1 ...f...........r.......h.......
2 ....r....f.....................
3 ......h.................h....hf
4 .....r.............t.h.......t.

Turn = 7.
  0123456789012345678901234567890
0 f..f..h..h..........r..........
1 ......hhh.r...t............h...
2 ........h.r....................
3 ..t.......r................h...
4 ..t............................
5 ............h..tttt............
6 ...............................
7 .................h.............
8 .............t.............h...
9 ........f.......t..r...........
0 ....r.......f.................r
1 .........rtt.........f.......r.
2 .........r...............h.....
3 h............h...........f.....
4 ............f..................
5 .........tt...........r........
6 .....th..................f.....
7 ........f..........f...........
8 ...........................f...
9 ......................r........
0 r..........................r...
1 ...f..........................h
2 .........f...................r.
3 .................r....h.......f
4 ............r...r..t.......h.r.

Turn = 14.
  0123456789012345678901234567890
0 f..fh.hr.h....rr...........h...
1 ........r.....t................
2 ........r......................
3 ..trr....r....................h
4 ..t............................
5 .........r....tttttt...........
6 ...............................
7 ..........h....................
8 .............t................h
9 ......h.f....t..t..............
0 ............f..................
1 ..r.......tt.........f.........
2 .........................h.....
3 r........................f.....
4 r...........f..................
5 .........tt....r...............
6 .....t...........r.......f.....
7 ........f..........f..........r
8 ...........................f.rr
9 ...............r.............r.
0 ...............................
1 ...f.......................r...
2 .........f.....................
3 ...............h..............f
4 ...................r.r.r.....rr

Turn = 21.
  0123456789012345678901234567890
0 fr..rr..rh....t.......r....h...
1 ..............t................
2 ...r...........r...............
3 ..t.r.h.......................h
4 ..t.r..r......r................
5 .............r.ttttt...........
6 ...............................
7 r..h...........................
8 .............t................h
9 ........f....t..tr.............
0 ............f..................
1 ..........tt.........f.........
2 .........................h.....
3 .....r...................f.....
4 ......r.....f.................r
5 .........rr................r...
6 .....t...................f.....
7 ........f.r........f...........
8 ...........................r...
9 ........r...................r..
0 ..............................r
1 ...f................r.......r..
2 .........f.................rr..
3 ........h.....................f
4 .........................rr....

*** Darwin 29x30 ***
Turn = 0.
  012345678901234567890123456789
0 rt.................r..........
1 ..............................
2 .....h..h.....................
3 ...........f..................
4 ..............................
5 ..............................
6 ...........f.............ht...
7 ................rr............
8 .............................h
9 ..............................
0 ........................r.....
1 .........................r....
2 .....t................r....f..
3 .........f.............r.....r
4 ..............................
5 ..............................
6 ..h...........t...............
7 ...r..........................
8 ...................h..........
9 ...............h..............
0 .............t................
1 ...f..........................
2 ....................t.....r...
3 ..............................
4 ..h......f....................
5 ..............................
6 ..............................
7 ................r....f........
8 ....h.....f...................

Turn = 2.
  012345678901234567890123456789
0 .r.r.............r............
1 ..............................
2 ...h..h.......................
3 ...........f..................
4 ..............................
5 ..............................
6 ...........f..............t...
7 ..............rr..............
8 .........................h...h
9 ..............................
0 ......................r.......
1 ......................r.......
2 .....t.....................f..
3 .........f...........r...r....
4 ..............................
5 .............................r
6 h.............t...............
7 .r............................
8 .....................h........
9 .............t................
0 .............t................
1 ...f..........................
2 ....................t.......r.
3 ..............................
4 .........f....................
5 ..............................
6 ..h.h.........................
7 .....................f........
8 ..........f.....r.............

Turn = 4.
  012345678901234567890123456789
0 ...r.r.........r..............
1 ..............................
2 .h..h.........................
3 ...........f..................
4 ..............................
5 ..............................
6 ...........f..............t...
7 ............rr................
8 .............................h
9 ..............................
0 ....................r....h....
1 ........................r.....
2 .....t.....................f..
3 .........f.........r..........
4 ..............................
5 .........................r....
6 h.............t...............
7 r............................r
8 .......................h......
9 .............t................
0 .............t................
1 ...f..........................
2 ....................t........r
3 ..............................
4 ....h....f....................
5 ..............................
6 ..............................
7 .....................f........
8 ..h.......f.......r...........

Turn = 6.
  012345678901234567890123456789
0 .....r.r.....r................
1 ..............................
2 h.h...........................
3 ...........f..................
4 ..............................
5 ..............................
6 ...........f..............t...
7 ..........rr..................
8 .............................h
9 ..............................
0 ..................r...........
1 ........................r.....
2 .....t...................r.f..
3 .........f.......r............
4 ..............................
5 ..............................
6 r.............t...............
7 r........................r....
8 .........................h....
9 .............t...............r
0 .............t................
1 ...f..........................
2 ....h...............t.........
3 ..............................
4 .........f...................r
5 ..............................
6 ..............................
7 .....................f........
8 ..h.......f.........r.........

Turn = 8.
  012345678901234567890123456789
0 .......r.r.r..................
1 ..............................
2 hh............................
3 ...........f..................
4 ..............................
5 ..............................
6 ...........f..............t...
7 ........rr....................
8 .............................h
9 ..............................
0 ................r.............
1 ..............................
2 .....t.....................f..
3 .........f.....r........r.....
4 r........................r....
5 ..............................
6 ..............t...............
7 ..............................
8 r........................r.r..
9 .............t................
0 ....h........t................
1 ...f.........................r
2 ....................t.........
3 ..............................
4 .........f....................
5 ..............................
6 .............................r
7 .....................f........
8 ..h.......f...........r.......

Turn = 10.
  012345678901234567890123456789
0 .........rrr..................
1 ..............................
2 hh............................
3 ...........f..................
4 ..............................
5 ..............................
6 ...........f..............t...
7 ......rr......................
8 .............................h
9 ..............................
0 ..............r...............
1 ..............................
2 r....t.....................f..
3 .........f...r................
4 ..............................
5 ........................r.....
6 ..............t..........r....
7 ..............................
8 ....h........................r
9 .............t................
0 r............t...........r....
1 ...f..........................
2 ....................t.........
3 .............................r
4 .........f....................
5 ..............................
6 ..............................
7 .....................f........
8 ..h.......f.............r....r

Turn = 12.
  012345678901234567890123456789
0 .........r....................
1 .........r....................
2 hh........r...................
3 ...........f..................
4 ..............................
5 ..............................
6 ...........f..............t...
7 ....rr........................
8 .............................h
9 ..............................
0 r...........r.................
1 ..............................
2 .....t.....................f..
3 .........f.r..................
4 ..............................
5 ..............................
6 ....h.........t...............
7 ........................r....r
8 .........................r....
9 .............t................
0 .............t................
1 ...f..........................
2 r...................t....r....
3 ..............................
4 .........f....................
5 .............................r
6 ..............................
7 .....................f........
8 ..h.......f...............r.r.

Turn = 14.
  012345678901234567890123456789
0 .......r......................
1 ..............................
2 hh............................
3 .........r.f..................
4 ..........r...................
5 ..............................
6 ...........f..............t...
7 ..rr..........................
8 r............................h
9 ..............................
0 ..........r...................
1 ..............................
2 .....t.....................f..
3 .........rr...................
4 ....h.........................
5 .............................r
6 ..............t...............
7 ..............................
8 ..............................
9 .............t..........r.....
0 .............t...........r....
1 ...f..........................
2 ....................t.........
3 ..............................
4 r........f...............r....
5 ..............................
6 ..............................
7 .....................f......rr
8 ..h.......f................r..

Turn = 16.
  012345678901234567890123456789
0 .....r........................
1 ..............................
2 hh............................
3 ...........f..................
4 ..............................
5 .........r....................
6 r.........rf..............t...
7 rr............................
8 .............................h
9 ..............................
0 ........r.....................
1 .........r....................
2 ....ht.....................f..
3 ........r....................r
4 ..............................
5 ..............................
6 ..............t...............
7 ..............................
8 ..............................
9 .............t................
0 .............t................
1 ...f....................r.....
2 ....................t....r....
3 ..............................
4 .........f....................
5 ............................r.
6 r........................r.r..
7 .....................f........
8 ..h.......f..................r

Turn = 18.
  012345678901234567890123456789
0 ...r..........................
1 ..............................
2 hh............................
3 ...........f..................
4 r.............................
5 ..............................
6 ...........f..............t...
7 .........r....................
8 rr........r..................h
9 .........r....................
0 ....h.r.......................
1 .............................r
2 .....t.....................f..
3 ......r.......................
4 ..............................
5 ..............................
6 ..............t...............
7 ..............................
8 ..............................
9 .............t................
0 .............t................
1 ...f..........................
2 ....................t.........
3 ........................r...r.
4 .........f...............r.r..
5 ..............................
6 ..............................
7 .....................f.......r
8 r.h.......f..............r....

Turn = 20.
  012345678901234567890123456789
0 .r............................
1 ..............................
2 rh............................
3 r..........f..................
4 ..............................
5 ..............................
6 ...........f..............t...
7 ..............................
8 ....h....r...................h
9 .........r...................r
0 rr..r.....r...................
1 ..............................
2 .....t.....................f..
3 ....r.........................
4 ..............................
5 ..............................
6 ..............t...............
7 ..............................
8 ..............................
9 .............t................
0 .............t................
1 ...f........................r.
2 ....................t......r..
3 ..............................
4 .........f....................
5 ........................r....r
6 .........................r....
7 .....................f........
8 .rh.......f.............r.....

*** Darwin 44x12 ***
Turn = 0.
  012345678901
0 ..........t.
1 ..r.........
2 .....h......
3 ......h.r...
4 .........h..
5 ............
6 ............
7 ............
8 r...........
9 .h....t.....
0 h...........
1 ........f...
2 ...........f
3 ............
4 ..........t.
5 ............
6 ............
7 ............
8 ............
9 ...r..t..t..
0 ............
1 ............
2 ............
3 .....f......
4 ...r.....r..
5 ............
6 ............
7 ...rf.......
8 ...........r
9 ............
0 ............
1 ............
2 ............
3 ............
4 ............
5 .........r..
6 r.........h.
7 ............
8 ............
9 ..h....t....
0 .....t...f..
1 .r.h........
2 ............
3 .......h....

Turn = 11.
  012345678901
0 ..........t.
1 ............
2 ...........h
3 ............
4 ...........h
5 ............
6 ............
7 ............
8 ............
9 ......tr....
0 .......r....
1 ......r.r...
2 ..r........f
3 ............
4 ..........t.
5 ............
6 r...........
7 ............
8 ............
9 ......t..t..
0 .h..........
1 ............
2 ............
3 .....f......
4 ............
5 ..........r.
6 ...........r
7 .....r...rr.
8 r.h.......r.
9 ..........r.
0 ............
1 ............
2 ...r........
3 ............
4 ............
5 ............
6 ...........r
7 ............
8 ............
9 .......t....
0 .....t.t.f..
1 ............
2 ............
3 r...........

Turn = 22.
  012345678901
0 .......r..t.
1 ............
2 ...........h
3 ............
4 ...........h
5 ............
6 ............
7 ............
8 r...........
9 ............
0 r...........
1 ............
2 ...........f
3 ............
4 ..........t.
5 r.........t.
6 .........rr.
7 .........r..
8 ............
9 ......t.....
0 .r..........
1 ...rr.......
2 ........r...
3 .....f.....r
4 ............
5 ............
6 ............
7 r...........
8 r...........
9 r...........
0 ............
1 .r....r.....
2 ......r.....
3 ............
4 ............
5 ..r.........
6 ...r........
7 ............
8 ............
9 .......t....
0 .....t.t.f..
1 ............
2 ............
3 ............

Turn = 33.
  012345678901
0 r...........
1 .r..........
2 ...........h
3 ............
4 .........r.h
5 .........rr.
6 .........r..
7 ............
8 ............
9 ............
0 ...r........
1 ............
2 ...........f
3 ............
4 ..........tt
5 ............
6 ............
7 ............
8 ......r.....
9 ......t.....
0 ............
1 ...........r
2 ............
3 .....f......
4 ...........r
5 ............
6 r...........
7 ..........r.
8 r.........r.
9 .r..........
0 ............
1 ............
2 ............
3 ........r...
4 ............
5 ............
6 r..........r
7 ............
8 ...........r
9 r......t....
0 .....t.t.f..
1 ............
2 .r..........
3 ............

*** Darwin 45x29 ***
Turn = 0.
  01234567890123456789012345678
0 .......h................frf..
1 .........t..h.........f....t.
2 ............................h
3 ......h......f...............
4 ..f....t.....................
5 ..........f..................
6 t..f..t......................
7 ..r.............f............
8 ........r....................
9 ..h...t..............r.......
0 .......h.t............t......
1 ....................r........
2 .....t.......................
3 .........................r...
4 .f..t....................f...
5 ........t....................
6 .................h.....t.....
7 ...........h.................
8 .............h...............
9 .....f.......t...............
0 ...f.........................
1 ..........h..................
2 .........h...................
3 ..........h..................
4 ..........f.f................
5 ........................t....
6 ....r.t..............r.......
7 ...................t.........
8 ..hr....r...r.f.............h
9 ........r....................
0 ...........t.......t.........
1 ........................h....
2 .....t...............r......f
3 .................r.....hr....
4 ............r................
5 .............f............h..
6 ..............f.............h
7 t............................
8 .t...........................
9 ..f....................r..t..
0 .........................f...
1 ....................f......f.
2 ....r.....f..................
3 ......................f.....f
4 ............t....f.r.....f...

Turn = 9.
  01234567890123456789012345678
0 ......h.........h..........t.
1 .........tt...........f....t.
2 ...................h.........
3 .............f...............
4 ..f....t.....................
5 ..........f.............r....
6 t..f..t...................r..
7 ......t.........f............
8 r..........h.................
9 h.....t......h..............r
0 ........tt............t......
1 .............................
2 .....t....h..................
3 .............................
4 .f..t........................
5 ........t....................
6 ........h..............t.....
7 .............................
8 .....................r.......
9 ..h..f.......t..............h
0 ...f..........r.....r........
1 .........................r...
2 h............................
3 ..........h..................
4 ..........f.f....r...........
5 ........................t....
6 ............r.r....t.........
7 ...................t.........
8 r............................
9 .............................
0 ...........t...rr..t.......r.
1 ...............r.............
2 .....t....................r..
3 ...........................rr
4 .............................
5 .............f...............
6 ..............f.............h
7 t..r.........................
8 rt...............r........t..
9 ..f...........r...........t..
0 .........................f...
1 ....................f......f.
2 ..........f..................
3 ............t.........f.....f
4 ............rr...........f...

*** Darwin 69x88 ***
Turn = 0.
  0123456789012345678901234567890123456789012345678901234567890123456789012345678901234567
0 ........................................................................................
1 ......t.................................................................................
2 ........................................................................................
3 ........................................................................................
4 ........................................................................................
5 ........................................................................................
6 ........................................................................................
7 ........................................................................................
8 ........................................................................................
9 .....................................................................t..................
0 ........................................................................................
1 ...............h........................................................................
2 ........................................................................................
3 ........................................................................................
4 ........................................................................................
5 ........................................................................................
6 .........t..............................................................................
7 ........................................................f.........f.....................
8 ........................................................................................
9 ........................................f...............................................
0 ........................................................................................
1 ........................................................................................
2 ........................................................................................
3 ........................................................................................
4 ........................................................................................
5 ........................................................................................
6 ........................................................................................
7 ........................................................................................
8 ........................................................................................
9 ........................................................................r...............
0 ........................................................................................
1 ......f.................................................................................
2 ........................................................................................
3 ........................................................................................
4 ........................................................................................
5 ........................................................................................
6 ......................t....t............................................................
7 ........................................................................................
8 ........................................................................................
9 ........................................................................................
0 ........................................................................................
1 ........................................................................................
2 ...................................................................................h....
3 .......................................................................r................
4 .....................................................................t..................
5 ........................................f...............................................
6 ........................................................................................
7 .....................................................h..................................
8 ........................................................................................
9 ........................................................................................
0 ...................................................h....................................
1 ........................................................................................
2 ...........................t...................................t........................
3 ........................................................................................
4 ........................................................................................
5 ...................................................h.................................t..
6 ..........................................................h...............f.............
7 ........................................................................................
8 ........................................................................................
9 ........................................................................................
0 ...................................f....................................................
1 ........................................................................................
2 ........................................................................................
3 ...............f........................................................................
4 ........................................................................................
5 ........................................................................................
6 ........................................................................................
7 ............................h...........................................................
8 ........................................................................................

Turn = 11.
  0123456789012345678901234567890123456789012345678901234567890123456789012345678901234567
0 ........................................................................................
1 ......t.................................................................................
2 ........................................................................................
3 ........................................................................................
4 ........................................................................................
5 ........................................................................................
6 ........................................................................................
7 ........................................................................................
8 ........................................................................................
9 .....................................................................t..................
0 ........................................................................................
1 ..........................h.............................................................
2 ........................................................................................
3 ........................................................................................
4 ........................................................................................
5 ........................................................................................
6 .........t..............................................................................
7 ........................................................f.........f.....................
8 ........................................................................r...............
9 ........................................f...............................................
0 ........................................................................................
1 ........................................................................................
2 ........................................................................................
3 ........................................................................................
4 ........................................................................................
5 ........................................................................................
6 ........................................................................................
7 ........................................................................................
8 ........................................................................................
9 ........................................................................................
0 ........................................................................................
1 ......f.................................................................................
2 ........................................................................................
3 ........................................................................................
4 ........................................................................................
5 ........................................................................................
6 ......................t....t............................................................
7 ........................................................................................
8 ........................................................................................
9 ........................................................................................
0 ........................................................................................
1 ........................................................................................
2 .......................................................................................h
3 ..................................................................................r.....
4 ...................................................h.................t..................
5 ........................................f.................h.............................
6 ........................................................................................
7 ..........................................h.............................................
8 ........................................................................................
9 ........................................................................................
0 ........................................h...............................................
1 ........................................................................................
2 ...........................t...................................t........................
3 ........................................................................................
4 ........................................................................................
5 .....................................................................................t..
6 ..........................................................................f.............
7 ........................................................................................
8 ........................................................................................
9 ........................................................................................
0 ...................................f....................................................
1 ........................................................................................
2 ........................................................................................
3 ...............f........................................................................
4 ........................................................................................
5 ........................................................................................
6 ........................................................................................
7 .................h......................................................................
8 ........................................................................................

*** Darwin 6x15 ***
Turn = 0.
  012345678901234
0 f..tf..th.t....
1 .f....rhr...th.
2 f..h.rttf.rr.fr
3 ..f.....hrhr.rf
4 .t.rfrt.......f
5 .f....f..rtfr..

Turn = 4.
  012345678901234
0 f..tt..tt.ttrhr
1 .fr....t.r.rr..
2 f.r..httf....f.
3 ..f....r.rr...f
4 .t..f...rrrr..f
5 .t....rr..r.r.r

Turn = 8.
  012345678901234
0 f.rtt..ttttttt.
1 r......t...tt..
2 r....ttrt....fr
3 ..f....rrtr..rr
4 rt..f...rtr..r.
5 .t.r.......r.rr

Turn = 12.
  012345678901234
0 f.....rttttttrr
1 ..r....t..tttr.
2 ...r.tttt......
3 r.f.r..tttr...r
4 .t..r.rr.r..r..
5 rtr.......r.rr.

Turn = 16.
  012345678901234
0 f.....rr.tttttt
1 .....rrtr.ttttt
2 rr...r.t.r.....
3 .rrrr..rrr.rr..
4 r..r..r.r..r...
5 r......r..r.r..

Turn = 20.
  012345678901234
0 frrr.r.r.ttrrtt
1 ..r....r.tttrtt
2 ..r...r.....r..
3 r.......r.rrr..
4 r.rrr.r...r...r
5 ..rrr...rrr....

Turn = 24.
  012345678901234
0 rr..rr.r.rttttt
1 r.rr..r.rrttttt
2 r.r.....r....tt
3 ..r.....r......
4 rrr...r....r...
5 ..rr.rrrr.r....

Turn = 28.
  012345678901234
0 rrrr.r.r.tttttt
1 rrrr......ttttt
2 ..r.rrr......tt
3 rr...r..r......
4 rrr....r......r
5 .r.r.rrr.......

Turn = 32.
  012345678901234
0 rrr.rr...tttttt
1 rrrr.r.r..ttttt
2 rr....r......tt
3 ..rr........r..
4 r.rrr..........
5 rrrrr.....r.r..

Turn = 36.
  012345678901234
0 rrrr...r.tttrtt
1 r..r.....rrrttt
2 rrr..r.......tt
3 rrrrr......r..t
4 .rrrr..........
5 .rrr.r........r

Turn = 40.
  012345678901234
0 rrrrr..tttttrtt
1 r.rr.......rttt
2 .rrr.....rr.ttt
3 rrr.....r.....t
4 r...r..........
5 rr....r.r.r.r..

Turn = 44.
  012345678901234
0 r.r..rttttttrtt
1 rr....r....rttt
2 r.r....rr...ttt
3 rr.r.......r..t
4 r...r...rrr....
5 ..r..r..rr.r...

*** Darwin 3x44 ***
Turn = 0.
  01234567890123456789012345678901234567890123
0 ....t...r..t..r...f.hr.r......t....fffft..t.
1 r..f.fhhf.f.r.h.rhr..hr..t...t.t.t...f..fft.
2 r..t..f....ff.f...rttft.rfh..th.rr......rr.r

Turn = 12.
  01234567890123456789012345678901234567890123
0 ..rrr......rr..rrrr.tr......r.rr...ttttr...r
1 ...t.f..r..rr......rrr.......rr.t....tttr.rr
2 r.trr..r...tt.r..r..rrrrttt..r.r.r.....t.r..

Turn = 24.
  01234567890123456789012345678901234567890123
0 ...r.r..........rr..rr....r.......r.rrrttt..
1 ...rrrr....tt.r.rrr..rrrrr..r...rrrrrrr..rr.
2 r.rrr.r....tttrr.r..r..rr..........r.rrr.r..

*** Darwin 92x51 ***
Turn = 0.
  012345678901234567890123456789012345678901234567890
0 ...................................................
1 ...................................................
2 ..................f................................
3 ...................................................
4 ...................................................
5 ...................................................
6 ...................................................
7 .......................h...........................
8 ...................................................
9 ...................................................
0 ...................................................
1 ...................................................
2 .............................................t.....
3 .......................................t...........
4 ...................................................
5 ...................................................
6 ...................................................
7 ....................................t..............
8 ...................................................
9 ...................................................
0 ...................................................
1 ...................................................
2 ...................................................
3 ...................................................
4 ...................................................
5 ..t................................................
6 .................................................t.
7 ...................................................
8 ..h................................................
9 ...................................................
0 ...................................................
1 ...................................................
2 ...................................................
3 ...................................................
4 ...................................................
5 ..h................................................
6 .........................................h.........
7 ...................................................
8 ..............r....................................
9 ...................................................
0 ...................................................
1 .r.................................................
2 ........................h..........................
3 ...................................................
4 ...................................................
5 ...................................................
6 .......r...........................................
7 ...................................................
8 ...................................................
9 ...................................................
0 ....................................f..............
1 ...................................................
2 ...................................................
3 ...................................................
4 ...................................................
5 ...................................................
6 ...................................................
7 ...................................................
8 ...................................................
9 ............t......................................
0 ...................................................
1 ...................................................
2 ..............................t....................
3 ...................................................
4 ...................................................
5 ...................................................
6 ...................................................
7 ...................................................
8 ...................................................
9 ...................................................
0 ...................................................
1 ...................................................
2 ...................................................
3 ...................................................
4 ...................................................
5 ...................................................
6 ...................................................
7 ...................................................
8 ...................................................
9 ...................................................
0 ...................................................
1 ...................................................
2 ...................................................
3 ...................................................
4 ...................................................
5 ........................t..........................
6 ...................................................
7 ...................................................
8 ...................................................
9 ...................................................
0 ...................................................
1 ...................................................

Turn = 6.
  012345678901234567890123456789012345678901234567890
0 ...................................................
1 .......................h...........................
2 ..................f................................
3 ...................................................
4 ...................................................
5 ...................................................
6 ...................................................
7 ...................................................
8 ...................................................
9 ...................................................
0 ...................................................
1 ...................................................
2 .............................................t.....
3 .......................................t...........
4 ...................................................
5 ...................................................
6 ...................................................
7 ....................................t..............
8 ...................................................
9 ...................................................
0 ...................................................
1 ...................................................
2 ...................................................
3 ...................................................
4 ...................................................
5 ..t................................................
6 .................................................t.
7 ...................................................
8 h..................................................
9 ...................................................
0 ...................................................
1 ...................................................
2 ...................................................
3 ...................................................
4 ...................................................
5 h..................................................
6 ...................................................
7 r..................................................
8 ........r..........................................
9 ...................................................
0 ...................................................
1 ...................................................
2 .........................................h.........
3 ...................................................
4 ...................................................
5 ...................................................
6 .............r.....................................
7 ...................................................
8 ........................h..........................
9 ...................................................
0 ....................................f..............
1 ...................................................
2 ...................................................
3 ...................................................
4 ...................................................
5 ...................................................
6 ...................................................
7 ...................................................
8 ...................................................
9 ............t......................................
0 ...................................................
1 ...................................................
2 ..............................t....................
3 ...................................................
4 ...................................................
5 ...................................................
6 ...................................................
7 ...................................................
8 ...................................................
9 ...................................................
0 ...................................................
1 ...................................................
2 ...................................................
3 ...................................................
4 ...................................................
5 ...................................................
6 ...................................................
7 ...................................................
8 ...................................................
9 ...................................................
0 ...................................................
1 ...................................................
2 ...................................................
3 ...................................................
4 ...................................................
5 ........................t..........................
6 ...................................................
7 ...................................................
8 ...................................................
9 ...................................................
0 ...................................................
1 ...................................................

Turn = 12.
  012345678901234567890123456789012345678901234567890
0 .......................h...........................
1 ...................................................
2 ..................f................................
3 ...................................................
4 ...................................................
5 ...................................................
6 ...................................................
7 ...................................................
8 ...................................................
9 ...................................................
0 ...................................................
1 ...................................................
2 .............................................t.....
3 .......................................t...........
4 ...................................................
5 ...................................................
6 ...................................................
7 ....................................t..............
8 ...................................................
9 ...................................................
0 ...................................................
1 ...................................................
2 ...................................................
3 ...................................................
4 ...................................................
5 ..t................................................
6 .................................................t.
7 ...................................................
8 h..................................................
9 ...................................................
0 ...................................................
1 ...................................................
2 ...................................................
3 ...................................................
4 r..................................................
5 ...................................................
6 ...r...............................................
7 ...................................................
8 ..r................................................
9 ...................................................
0 ...................................................
1 ...................................................
2 ...................................................
3 ...................................................
4 ...................................................
5 ...................................................
6 ...................r...............................
7 ...................................................
8 .........................................h.........
9 ...................................................
0 ....................................f..............
1 ...................................................
2 ...................................................
3 ...................................................
4 ........................h..........................
5 ...................................................
6 ...................................................
7 ...................................................
8 ...................................................
9 ............t......................................
0 ...................................................
1 ...................................................
2 ..............................t....................
3 ...................................................
4 ...................................................
5 ...................................................
6 ...................................................
7 ...................................................
8 ...................................................
9 ...................................................
0 ...................................................
1 ...................................................
2 ...................................................
3 ...................................................
4 ...................................................
5 ...................................................
6 ...................................................
7 ...................................................
8 ...................................................
9 ...................................................
0 ...................................................
1 ...................................................
2 ...................................................
3 ...................................................
4 ...................................................
5 ........................t..........................
6 ...................................................
7 ...................................................
8 ...................................................
9 ...................................................
0 ...................................................
1 ...................................................

Turn = 18.
  012345678901234567890123456789012345678901234567890
0 .......................h...........................
1 ...................................................
2 ..................f................................
3 ...................................................
4 ...................................................
5 ...................................................
6 ...................................................
7 ...................................................
8 ...................................................
9 ...................................................
0 ...................................................
1 ...................................................
2 .............................................t.....
3 .......................................t...........
4 ...................................................
5 ...................................................
6 ...................................................
7 ....................................t..............
8 ...................................................
9 ...................................................
0 ...................................................
1 ...................................................
2 ...................................................
3 ...................................................
4 ...................................................
5 ..t................................................
6 .................................................t.
7 ...................................................
8 r..................................................
9 r..................................................
0 ...................................................
1 ...................................................
2 ...................................................
3 ...................................................
4 ...................................................
5 r..................................................
6 .........r.........................................
7 ...................................................
8 ...................................................
9 ...................................................
0 ...................................................
1 ...................................................
2 ...................................................
3 ...................................................
4 ...................................................
5 ...................................................
6 .........................r.........................
7 ...................................................
8 ...................................................
9 ...................................................
0 ....................................f..............
1 ...................................................
2 ...................................................
3 ...................................................
4 .........................................h.........
5 ...................................................
6 ...................................................
7 ...................................................
8 ...................................................
9 ............t......................................
0 ........................h..........................
1 ...................................................
2 ..............................t....................
3 ...................................................
4 ...................................................
5 ...................................................
6 ...................................................
7 ...................................................
8 ...................................................
9 ...................................................
0 ...................................................
1 ...................................................
2 ...................................................
3 ...................................................
4 ...................................................
5 ...................................................
6 ...................................................
7 ...................................................
8 ...................................................
9 ...................................................
0 ...................................................
1 ...................................................
2 ...................................................
3 ...................................................
4 ...................................................
5 ........................t..........................
6 ...................................................
7 ...................................................
8 ...................................................
9 ...................................................
0 ...................................................
1 ...................................................

Turn = 24.
  012345678901234567890123456789012345678901234567890
0 .......................h...........................
1 ...................................................
2 ..................f................................
3 ...................................................
4 ...................................................
5 ...................................................
6 ...................................................
7 ...................................................
8 ...................................................
9 ...................................................
0 ...................................................
1 ...................................................
2 .............................................t.....
3 .......................................t...........
4 ...................................................
5 ...................................................
6 ...................................................
7 ....................................t..............
8 ...................................................
9 ...................................................
0 ...................................................
1 ...................................................
2 ...................................................
3 ...................................................
4 ...................................................
5 ..t................................................
6 .................................................t.
7 ...................................................
8 ..r................................................
9 r..r...............................................
0 ...................................................
1 ...................................................
2 ...................................................
3 ...................................................
4 ...................................................
5 ...................................................
6 ...............r...................................
7 ...................................................
8 ...................................................
9 ...................................................
0 ...................................................
1 ...................................................
2 ...................................................
3 ...................................................
4 ...................................................
5 ...................................................
6 ...............................r...................
7 ...................................................
8 ...................................................
9 ...................................................
0 ....................................f..............
1 ...................................................
2 ...................................................
3 ...................................................
4 ...................................................
5 ...................................................
6 ...................................................
7 ...................................................
8 ...................................................
9 ............t......................................
0 .........................................h.........
1 ...................................................
2 ..............................t....................
3 ...................................................
4 ...................................................
5 ...................................................
6 ........................h..........................
7 ...................................................
8 ...................................................
9 ...................................................
0 ...................................................
1 ...................................................
2 ...................................................
3 ...................................................
4 ...................................................
5 ...................................................
6 ...................................................
7 ...................................................
8 ...................................................
9 ...................................................
0 ...................................................
1 ...................................................
2 ...................................................
3 ...................................................
4 ...................................................
5 ........................t..........................
6 ...................................................
7 ...................................................
8 ...................................................
9 ...................................................
0 ...................................................
1 ...................................................

Turn = 30.
  012345678901234567890123456789012345678901234567890
0 .......................h...........................
1 ...................................................
2 ..................f................................
3 ...................................................
4 ...................................................
5 ...................................................
6 ...................................................
7 ...................................................
8 ...................................................
9 ...................................................
0 ...................................................
1 ...................................................
2 .............................................t.....
3 .......................................t...........
4 ...................................................
5 ...................................................
6 ...................................................
7 ....................................t..............
8 ...................................................
9 ...................................................
0 ...................................................
1 ...................................................
2 ...................................................
3 r..................................................
4 ...................................................
5 ..t................................................
6 .................................................t.
7 ...................................................
8 ........r..........................................
9 .........r.........................................
0 ...................................................
1 ...................................................
2 ...................................................
3 ...................................................
4 ...................................................
5 ...................................................
6 .....................r.............................
7 ...................................................
8 ...................................................
9 ...................................................
0 ...................................................
1 ...................................................
2 ...................................................
3 ...................................................
4 ...................................................
5 ...................................................
6 .....................................r.............
7 ...................................................
8 ...................................................
9 ...................................................
0 ....................................f..............
1 ...................................................
2 ...................................................
3 ...................................................
4 ...................................................
5 ...................................................
6 ...................................................
7 ...................................................
8 ...................................................
9 ............t......................................
0 ...................................................
1 ...................................................
2 ..............................t....................
3 ...................................................
4 ...................................................
5 ...................................................
6 .........................................h.........
7 ...................................................
8 ...................................................
9 ...................................................
0 ...................................................
1 ...................................................
2 ........................h..........................
3 ...................................................
4 ...................................................
5 ...................................................
6 ...................................................
7 ...................................................
8 ...................................................
9 ...................................................
0 ...................................................
1 ...................................................
2 ...................................................
3 ...................................................
4 ...................................................
5 ........................t..........................
6 ...................................................
7 ...................................................
8 ...................................................
9 ...................................................
0 ...................................................
1 ...................................................

Turn = 36.
  012345678901234567890123456789012345678901234567890
0 .......................h...........................
1 ...................................................
2 ..................f................................
3 ...................................................
4 ...................................................
5 ...................................................
6 ...................................................
7 ...................................................
8 ...................................................
9 ...................................................
0 ...................................................
1 ...................................................
2 .............................................t.....
3 .......................................t...........
4 ...................................................
5 ...................................................
6 ...................................................
7 r...................................t..............
8 ...................................................
9 ...................................................
0 ...................................................
1 ...................................................
2 ...................................................
3 ...................................................
4 ...................................................
5 ..t................................................
6 .................................................t.
7 ...................................................
8 ..............r....................................
9 ...............r...................................
0 ...................................................
1 ...................................................
2 ...................................................
3 ...................................................
4 ...................................................
5 ...................................................
6 ...........................r.......................
7 ...................................................
8 ...................................................
9 ...................................................
0 ...................................................
1 ...................................................
2 ...................................................
3 ...................................................
4 ...................................................
5 ...................................................
6 ...........................................r.......
7 ...................................................
8 ...................................................
9 ...................................................
0 ....................................f..............
1 ...................................................
2 ...................................................
3 ...................................................
4 ...................................................
5 ...................................................
6 ...................................................
7 ...................................................
8 ...................................................
9 ............t......................................
0 ...................................................
1 ...................................................
2 ..............................t....................
3 ...................................................
4 ...................................................
5 ...................................................
6 ...................................................
7 ...................................................
8 ...................................................
9 ...................................................
0 ...................................................
1 ...................................................
2 .........................................h.........
3 ...................................................
4 ...................................................
5 ...................................................
6 ...................................................
7 ...................................................
8 ........................h..........................
9 ...................................................
0 ...................................................
1 ...................................................
2 ...................................................
3 ...................................................
4 ...................................................
5 ........................t..........................
6 ...................................................
7 ...................................................
8 ...................................................
9 ...................................................
0 ...................................................
1 ...................................................

Turn = 42.
  012345678901234567890123456789012345678901234567890
0 .......................h...........................
1 ...................................................
2 ..................f................................
3 ...................................................
4 ...................................................
5 ...................................................
6 ...................................................
7 ...................................................
8 ...................................................
9 ...................................................
0 ...................................................
1 r..................................................
2 .............................................t.....
3 .......................................t...........
4 ...................................................
5 ...................................................
6 ...................................................
7 ....................................t..............
8 ...................................................
9 ...................................................
0 ...................................................
1 ...................................................
2 ...................................................
3 ...................................................
4 ...................................................
5 ..t................................................
6 .................................................t.
7 ...................................................
8 ....................r..............................
9 .....................r.............................
0 ...................................................
1 ...................................................
2 ...................................................
3 ...................................................
4 ...................................................
5 ...................................................
6 .................................r.................
7 ...................................................
8 ...................................................
9 ...................................................
0 ...................................................
1 ...................................................
2 ...................................................
3 ...................................................
4 ...................................................
5 ...................................................
6 .................................................r.
7 ...................................................
8 ...................................................
9 ...................................................
0 ....................................f..............
1 ...................................................
2 ...................................................
3 ...................................................
4 ...................................................
5 ...................................................
6 ...................................................
7 ...................................................
8 ...................................................
9 ............t......................................
0 ...................................................
1 ...................................................
2 ..............................t....................
3 ...................................................
4 ...................................................
5 ...................................................
6 ...................................................
7 ...................................................
8 ...................................................
9 ...................................................
0 ...................................................
1 ...................................................
2 ...................................................
3 ...................................................
4 ...................................................
5 ...................................................
6 ...................................................
7 ...................................................
8 .........................................h.........
9 ...................................................
0 ...................................................
1 ...................................................
2 ...................................................
3 ...................................................
4 ........................h..........................
5 ........................t..........................
6 ...................................................
7 ...................................................
8 ...................................................
9 ...................................................
0 ...................................................
1 ...................................................

*** Darwin 10x78 ***
Turn = 0.
  012345678901234567890123456789012345678901234567890123456789012345678901234567
0 .h....................r..t.......................f............f...............
1 ...........t.........f........h...............................................
2 ..................r..............t............................................
3 ............................f....................t............................
4 .................................h..........................................f.
5 .....f......................................................h..r..............
6 ..............................................................................
7 ...................................................h....rr..................r.
8 .....................h.........r..............................................
9 .r...................f........................................................

Turn = 5.
  012345678901234567890123456789012345678901234567890123456789012345678901234567
0 .h..................r...tt....h..................f............f...............
1 ...........t.........f........................................................
2 .................................t............................................
3 .....................h......f....................t............................
4 ............................h...............................................fr
5 .....f...........................................................h............
6 ..............................................................................
7 r.......................................................h.....................
8 ....................................r.........................................
9 .....................f................................rr.......r..............

Turn = 10.
  012345678901234567890123456789012345678901234567890123456789012345678901234567
0 .h.....................r.t....h..................f............f..............r
1 ...........t.........f..r.....................................................
2 r....................h...........t............................................
3 ............................f....................t............................
4 .......................h....................................................f.
5 .....f................................................................h.......
6 ..............................................................................
7 .............................................................h................
8 .........................................r....................................
9 .....................f...........................rr.................r.........

Turn = 15.
  012345678901234567890123456789012345678901234567890123456789012345678901234567
0 rh.......................t....h..................f............f...............
1 ...........t.........f........................................................
2 .....................h...........t...........................................r
3 ............................f....................t............................
4 ..................h.........................................................f.
5 .....f.................r...................................................h..
6 ........................r.....................................................
7 ..................................................................h...........
8 ..............................................r...............................
9 .....................f......................rr...........................r....

Turn = 20.
  012345678901234567890123456789012345678901234567890123456789012345678901234567
0 .h.......................t....h..................f............f...............
1 ...........t.........f........................................................
2 .....................h...........t............................................
3 ............................f....................t............................
4 r............h..............................................................fr
5 .....f......................................................................r.
6 ..............................................................................
7 .......................................................................h......
8 ...................................................r..........................
9 .....................f.rr..............rr....................................r

Turn = 25.
  012345678901234567890123456789012345678901234567890123456789012345678901234567
0 .h.......................t....h..................f............f..............r
1 ...........t.........f........................................................
2 .....................h...........t............................................
3 ............................f....................t............................
4 ........h...............r...................................................fr
5 .....f.................................................................r......
6 ..............................................................................
7 ............................................................................h.
8 ........................................................r.....................
9 r.................rr..............rr..........................................

Turn = 30.
  012345678901234567890123456789012345678901234567890123456789012345678901234567
0 .h......................rt....h..................f............f.........r....r
1 ...........t.........f........................................................
2 .....................h...........t............................................
3 ............................f....................t............................
4 ...h........................................................................f.
5 .....f............................................................r...........
6 ..............................................................................
7 .............................................................................h
8 .............................................................r................
9 ....r........rr..............rr...............................................

Turn = 35.
  012345678901234567890123456789012345678901234567890123456789012345678901234567
0 .h....................r...r...h..................f............f....r..........
1 ...........t.........f........................................................
2 .....................h...........t............................................
3 ............................f....................t............................
4 h...........................................................................fr
5 .....f.......................................................r................
6 ..............................................................................
7 .............................................................................h
8 ..................................................................r...........
9 ........rrr.............rr....................................................

*** Darwin 24x89 ***
Turn = 0.
  01234567890123456789012345678901234567890123456789012345678901234567890123456789012345678
0 ....h....................................f.....h.................h.......................
1 ..................t.............fr........................f..............................
2 .................................r...f...........................h.......................
3 ...................r.....................................................................
4 ..........................t..............................................................
5 .........................f...................................................h...........
6 .........................................................t........t..........f...........
7 .......................................h..f........t.....................................
8 ........................................f................................................
9 .t.t...f.....h.....r.....................................................................
0 .....................r..........hf......r................................................
1 ............f.............................h...................t...........r..............
2 ...r......................................f..............................................
3 ..............r.....................t.......................................r............
4 ................................................t......................f.................
5 ....................t....................f...............................................
6 ..........................r..........h....................f..............................
7 .........................................................................................
8 ........................................h................f...............................
9 .t..............t.......r..t.............................................................
0 .............................f....f.........r.....t..................................t...
1 ..f.....................h..................................................rt............
2 ........r.............................................f....t............t.....t.t....h...
3 ..............................................f....................r.....................

Turn = 3.
  01234567890123456789012345678901234567890123456789012345678901234567890123456789012345678
0 .h.......................................f.......................h..h....................
1 ..................t.............f...r.....................f..............................
2 ....................................rf...................................................
3 ......................r........................h.........................................
4 ..........................t..............................................................
5 .........................f...................................................h...........
6 .........................................................t........t..........f...........
7 ....................................h.....f........t.....................................
8 ........................................f................................................
9 .t.t...f........rr.......................................................................
0 ..................r..............f...r...................................................
1 ............f..........................h......................t..........................
2 ......r...................................f..............................................
3 .................r..............h...t....................................................
4 ................................................t......................f..r..............
5 ....................t....................f...............................................
6 .......................r..................................f.................r............
7 ............................................r............................................
8 ...........................................h.............f...............................
9 .t......r.......t....r.....t.........h...................................................
0 .............................f....f...............t..................................t...
1 ..f........................h............................................t...t............
2 ......................................................f....t............t.....t.t........
3 ..............................................f..................r...................h...

*** Darwin 20x18 ***
Turn = 0.
  012345678901234567
0 .hfhrr....fr...hh.
1 ...h..r....f......
2 ..................
3 ...f....r.ft......
4 fh.rr.t....r...t..
5 r..t.rr...r.r.....
6 ..................
7 ......t.r..t...f..
8 r.h......f.r......
9 .f..r.r....r.f....
0 .....h.....t......
1 ...f.....f..r.....
2 .h..........f...rf
3 h.....h....f..r...
4 .....h.h......t...
5 .............r....
6 h......t.r..t.....
7 ...........ft.....
8 .hf....r.r..r.....
9 ...r.h.ff..h......

Turn = 3.
  012345678901234567
0 .hrr...r.rr......h
1 h..rr......f......
2 ...r........r.....
3 r..r..r...tt...h..
4 .r.r...r.......t..
5 ...t..t...........
6 r...r...r..r......
7 ......t...r....f..
8 ....hr...frr......
9 .f.r.........f....
0 .h.....hrr........
1 ...f.....f.r......
2 ............r..r.f
3 h..hh......rr.....
4 ......hh......t...
5 .h.......rr.....r.
6 .......t...r.r....
7 ...........tt.....
8 ..f.....r.........
9 .r...h..r.rrr.....

Turn = 6.
  012345678901234567
0 .rr..r......r....h
1 r..r....r..f......
2 rr.......rr.......
3 r..r..r...tt...t..
4 ....rr.r..r....t..
5 ...tt.t....r......
6 ..............r...
7 ......tr.......f..
8 ......h.rr........
9 .rr.....r....f....
0 hh.......h........
1 ...f.r...fr.......
2 .h.......r..r..r.r
3 ...hh...rr........
4 ......hh......t..r
5 .......r..........
6 .......t...r..r.r.
7 ...........tt.....
8 ..f........r....r.
9 r....h...rrrr.....

Turn = 9.
  012345678901234567
0 rr......rr.......h
1 r.....r....f......
2 r......r...t......
3 ..r.....rr.t...t..
4 r..tt.rr.....r.t..
5 ...t.r..rrr.......
6 .rr......r.......r
7 hh..rr..r......f..
8 ..................
9 .h.....r.....f....
0 .........r..h.....
1 ...f.......r....r.
2 ........r......r..
3 ...hh.r...........
4 .....rhh..r.r.t..r
5 ....r...........r.
6 .......tr..rr...r.
7 .............r...r
8 ..f...........r...
9 ...r.hr.....r.r..r
